{
  "access": "Everybody",
  "components": [
    {
      "components": [
        {
          "name": "pageTitle",
          "size": "H1",
          "text": "PharmX",
          "type": "heading"
        },
        {
          "attributes": [
            {
              "name": "TItem",
              "value": "string"
            }
          ],
          "columns": [
            {
              "property": "Server",
              "title": "Server"
            },
            {
              "property": "IP",
              "title": "IP"
            },
            {
              "property": "Last response",
              "title": "Last response"
            },
            {
              "property": "Status",
              "title": "Status"
            },
            {
              "property": "Oranization",
              "title": "Organization"
            },
            {
              "property": "Port",
              "title": "Port"
            }
          ],
          "data": "",
          "name": "grid0",
          "type": "grid"
        }
      ],
      "container": "contentContainer",
      "type": "content"
    }
  ],
  "layout": "Main",
  "name": "PharmX"
}